05d690a3-0c08-4078-910b-d482d2a5c6c6, (29.922217926867237, 30.057771597643757), 0.0, 46.4955800917, 50.5725844427, 6
d26d695e-8687-4d37-a348-689a2d449a2f, (115.00925673405709, 97.24099622751234), 0.0, 31.2832203317, 52.3086188384, 6
edace23d-cfe9-4f8a-8c1c-9e0727959756, (51.73607664089448, 109.24770602870386), -49.2591149618, 25.0265762654, 46.907187767, 6
500dc7b7-4947-47ea-aa4c-b0842a20e696, (166.0284449902182, 22.76091975821747), -43.1390128021, 24.4485922523, 143.049673207, 6
4c691865-0135-4f28-a4d1-2b4876f08f10, (-37.719483016025904, 120.69329017328872), 71.116994541, 34.1271553527, 88.128650672, 6
947d3f97-34d1-4f8f-9201-f1ad37b37d99, (193.2440924153391, 121.66650169850124), -71.5715184784, 28.4392971867, 44.064325336, 6
b53b1bf8-0c18-4685-b464-873b9f11293c, (95.8048950405232, 161.9421997095454), -56.6213925553, 16.7728723399, 38.9618371245, 6
